@startuml

title __IMPL's Class Diagram__\n

  namespace fr.cnam.foad.nfa035.badges.wallet.dao {
    namespace impl {
      class fr.cnam.foad.nfa035.badges.wallet.dao.impl.DirectAccessBadgeWalletDAOImpl {
          {static} - LOG : Logger
          - walletDatabase : File
          + DirectAccessBadgeWalletDAOImpl()
          + addBadge()
          + addBadge()
          + getBadge()
          + getBadgeFromMetadata()
          + getWalletMetadata()
      }
    }
  }
  

  namespace fr.cnam.foad.nfa035.badges.wallet.dao {
    namespace impl {
      class fr.cnam.foad.nfa035.badges.wallet.dao.impl.MultiBadgeWalletDAOImpl {
          {static} - LOG : Logger
          - deserializer : ImageStreamingDeserializer<ResumableImageFrameMedia>
          - walletDatabase : File
          + MultiBadgeWalletDAOImpl()
          + addBadge()
          + getBadge()
      }
    }
  }
  

  namespace fr.cnam.foad.nfa035.badges.wallet.dao {
    namespace impl {
      class fr.cnam.foad.nfa035.badges.wallet.dao.impl.SingleBadgeWalletDAOImpl {
          {static} - LOG : Logger
          - walletDatabase : File
          + SingleBadgeWalletDAOImpl()
          + addBadge()
          + getBadge()
      }
    }
  }
  

  fr.cnam.foad.nfa035.badges.wallet.dao.impl.DirectAccessBadgeWalletDAOImpl .up.|> fr.cnam.foad.nfa035.badges.wallet.dao.DirectAccessBadgeWalletDAO
  fr.cnam.foad.nfa035.badges.wallet.dao.impl.MultiBadgeWalletDAOImpl .up.|> fr.cnam.foad.nfa035.badges.wallet.dao.BadgeWalletDAO
  fr.cnam.foad.nfa035.badges.wallet.dao.impl.MultiBadgeWalletDAOImpl o-- fr.cnam.foad.nfa035.badges.fileutils.streaming.media.ResumableImageFrameMedia : media
  fr.cnam.foad.nfa035.badges.wallet.dao.impl.SingleBadgeWalletDAOImpl .up.|> fr.cnam.foad.nfa035.badges.wallet.dao.BadgeWalletDAO
  fr.cnam.foad.nfa035.badges.wallet.dao.impl.SingleBadgeWalletDAOImpl o-- fr.cnam.foad.nfa035.badges.fileutils.streaming.media.ImageFrameMedia : media


right footer


PlantUML diagram generated by SketchIt! (https://bitbucket.org/pmesmeur/sketch.it)
For more information about this tool, please contact philippe.mesmeur@gmail.com
endfooter

@enduml
